MSH|^~\&|||||20130517214654||ORU^R01^ORU_R01|HP051721465477|P|2.6|||NE|AL||8859/1|EN^English^ISO639||IHE_PCD_001^IHE PCD^1.3.6.1.4.1.19376.1.6.1.1.1^ISO
PID|||1234^^^^MR||Doe^John^Q||""|""
PV1||I|My Unit^^Bed4
OBR|1|||69986^MDC_DEV_PUMP_INFUS_VMD^MDC|||20130517214603
OBX|1||69985^MDC_DEV_PUMP_INFUS_MDS^MDC|1.0.0.0||||F|||F|||||||893b3d54-c674-4609-8f89-d4f6e132d2e5
OBX|2||69986^MDC_DEV_PUMP_INFUS_VMD^MDC|1.1.0.0||||F|||F|||||||5776_1
OBX|3||69987^MDC_DEV_PUMP_INFUS_CHAN^MDC|1.1.1.0||||F|||F
OBX|4|NM|157864^MDC_VOL_FLUID_DELIV^MDC|1.1.1.1|0.00|263762^MDC_DIM_MILLI_L^MDC||F|||F
OBX|5|NM|157784^MDC_FLOW_FLUID_PUMP^MDC|1.1.1.2|0.00|265266^MDC_DIM_MILLI_L_PER_HR^MDC||F|||F
OBX|6|ST|184508^MDC_PUMP_STAT^MDC|1.1.1.3|Stopped|||F|||F
OBX|7|ST|67293368^NOM_SETT_PUMP_MODE^MDC|1.1.1.4|Off|||F|||F
OBX|8|ST|67293194^NOM_SETT_DRUG_NAME_TYPE^MDC|1.1.1.5|""|||F|||F
OBX|9||69986^MDC_DEV_PUMP_INFUS_VMD^MDC|1.2.0.0||||F|||F|||||||179605_1
OBX|10||69987^MDC_DEV_PUMP_INFUS_CHAN^MDC|1.2.1.0||||F|||F
OBX|11|NM|157860^MDC_VOL_FLUID_BOLUS^MDC|1.2.1.1|1.21|263762^MDC_DIM_MILLI_L^MDC||F|||F|||20130517211007|||||
OBX|12|NM|157864^MDC_VOL_FLUID_DELIV^MDC|1.2.1.2|35.63|263762^MDC_DIM_MILLI_L^MDC||F|||F
OBX|13|NM|157784^MDC_FLOW_FLUID_PUMP^MDC|1.2.1.3|0.10|265266^MDC_DIM_MILLI_L_PER_HR^MDC||F|||F
OBX|14|ST|184508^MDC_PUMP_STAT^MDC|1.2.1.4|Infusing|||F|||F
OBX|15|ST|67293368^NOM_SETT_PUMP_MODE^MDC|1.2.1.5|On|||F|||F
OBX|16|ST|67293194^NOM_SETT_DRUG_NAME_TYPE^MDC|1.2.1.6|""|||F|||F
